%YAML 1.1
%TAG !u! tag:unity3d.com,2011:
--- !u!114 &11400000
MonoBehaviour:
  m_ObjectHideFlags: 0
  m_CorrespondingSourceObject: {fileID: 0}
  m_PrefabInstance: {fileID: 0}
  m_PrefabAsset: {fileID: 0}
  m_GameObject: {fileID: 0}
  m_Enabled: 1
  m_EditorHideFlags: 0
  m_Script: {fileID: 11500000, guid: 4b8c2340947da274faf1ad5acc5dce37, type: 3}
  m_Name: DefaultHero
  m_EditorClassIdentifier: 
  _displayName: Test
  _sprite: {fileID: 21300000, guid: 007bb1ceccf7a7c41a01b7edf0e6b36e, type: 3}
  _color: {r: 1, g: 1, b: 1, a: 1}
  _stats:
    _values: 0a0000000a0000000a0000000a0000000a0000000a0000000a0000000a00000000000000
  _resistances: []
  _skills:
  - {fileID: 11400000, guid: 584c023c7d30d4d44a67b243f0c5156d, type: 2}
  _strategy: {fileID: 11400000, guid: e8ad86e1c8c305b41ae429a255f42eae, type: 2}
