%YAML 1.1
%TAG !u! tag:unity3d.com,2011:
--- !u!114 &11400000
MonoBehaviour:
  m_ObjectHideFlags: 0
  m_CorrespondingSourceObject: {fileID: 0}
  m_PrefabInstance: {fileID: 0}
  m_PrefabAsset: {fileID: 0}
  m_GameObject: {fileID: 0}
  m_Enabled: 1
  m_EditorHideFlags: 0
  m_Script: {fileID: 11500000, guid: 4b8c2340947da274faf1ad5acc5dce37, type: 3}
  m_Name: Demon
  m_EditorClassIdentifier: 
  _displayName: Demon
  _sprite: {fileID: 21300000, guid: b75a1aaf6ffc0d04d88cd6e3b4aa0733, type: 3}
  _color: {r: 0.7290468, g: 0, b: 1, a: 1}
  _stats:
    _values: fa0000002c0100000a0000000a000000090000001e000000190000000a00000001000000
  _resistances:
  - _form: {fileID: 11400000, guid: b379e6ee699f2db449eafc33990313d1, type: 2}
    _modification: 1
  - _form: {fileID: 11400000, guid: e2ddcd3a5a3bd1141bf3fc3f04e39db5, type: 2}
    _modification: 6
  _skills:
  - {fileID: 11400000, guid: ea75c94bdd7421744aaf36c96e906c7b, type: 2}
  - {fileID: 11400000, guid: 9958c8958941cf14289215ce6a30dbf1, type: 2}
  _strategy: {fileID: 11400000, guid: f75c1c9e597cb954bad340525b928b85, type: 2}
