%YAML 1.1
%TAG !u! tag:unity3d.com,2011:
--- !u!114 &11400000
MonoBehaviour:
  m_ObjectHideFlags: 0
  m_CorrespondingSourceObject: {fileID: 0}
  m_PrefabInstance: {fileID: 0}
  m_PrefabAsset: {fileID: 0}
  m_GameObject: {fileID: 0}
  m_Enabled: 1
  m_EditorHideFlags: 0
  m_Script: {fileID: 11500000, guid: 4b8c2340947da274faf1ad5acc5dce37, type: 3}
  m_Name: Hound
  m_EditorClassIdentifier: 
  _displayName: Hound
  _sprite: {fileID: 21300000, guid: edd51550fb0e26249817417f2d75bb26, type: 3}
  _color: {r: 0.25766218, g: 0.5754717, b: 0.23073158, a: 1}
  _stats:
    _values: 3c00000014000000080000000300000005000000020000000b0000000a0000000a000000
  _resistances: []
  _skills:
  - {fileID: 11400000, guid: e282f8137117b5548bf4dc78ac29dbbb, type: 2}
  _strategy: {fileID: 11400000, guid: f75c1c9e597cb954bad340525b928b85, type: 2}
