%YAML 1.1
%TAG !u! tag:unity3d.com,2011:
--- !u!114 &11400000
MonoBehaviour:
  m_ObjectHideFlags: 0
  m_CorrespondingSourceObject: {fileID: 0}
  m_PrefabInstance: {fileID: 0}
  m_PrefabAsset: {fileID: 0}
  m_GameObject: {fileID: 0}
  m_Enabled: 1
  m_EditorHideFlags: 0
  m_Script: {fileID: 11500000, guid: e3d1961db0b9a5143a9c8cbf5c4c96fc, type: 3}
  m_Name: Water
  m_EditorClassIdentifier: 
  _displayName: Water
  _icon: {fileID: 21300000, guid: a3c781794268b6d4aa4e8716773c1396, type: 3}
  _color: {r: 0.19900322, g: 0.7071808, b: 0.9811321, a: 1}
  _textSpriteIndex: 3
