%YAML 1.1
%TAG !u! tag:unity3d.com,2011:
--- !u!114 &11400000
MonoBehaviour:
  m_ObjectHideFlags: 0
  m_CorrespondingSourceObject: {fileID: 0}
  m_PrefabInstance: {fileID: 0}
  m_PrefabAsset: {fileID: 0}
  m_GameObject: {fileID: 0}
  m_Enabled: 1
  m_EditorHideFlags: 0
  m_Script: {fileID: 11500000, guid: 128de020714ca4f4bb9d3cfdce9487a5, type: 3}
  m_Name: Sturdiness
  m_EditorClassIdentifier: 
  _stat: 3
  _displayName: Sturdiness
  _maxValue: 300
  _icon: {fileID: 0}
  _color: {r: 1, g: 1, b: 1, a: 1}
