%YAML 1.1
%TAG !u! tag:unity3d.com,2011:
--- !u!114 &11400000
MonoBehaviour:
  m_ObjectHideFlags: 0
  m_CorrespondingSourceObject: {fileID: 0}
  m_PrefabInstance: {fileID: 0}
  m_PrefabAsset: {fileID: 0}
  m_GameObject: {fileID: 0}
  m_Enabled: 1
  m_EditorHideFlags: 0
  m_Script: {fileID: 11500000, guid: 128de020714ca4f4bb9d3cfdce9487a5, type: 3}
  m_Name: Vitality
  m_EditorClassIdentifier: 
  _displayName: Vitality
  _maxValue: 300
  _icon: {fileID: 21300000, guid: dd2c7eefe6526f14780f64d6d34a39e8, type: 3}
  _color: {r: 1, g: 0, b: 0.056383133, a: 1}
