{
    "name": "ProjectGaiaEditor",
    "references": [
        "GUID:e0fca3e96c6cd074395c69b9f8817411",
        "GUID:f9ca31480e9ed9341a635e6716437831",
        "GUID:4de7f76a5d50542c3b079ec8f3053adf"
    ],
    "includePlatforms": [
        "Editor"
    ],
    "excludePlatforms": [],
    "allowUnsafeCode": false,
    "overrideReferences": false,
    "precompiledReferences": [],
    "autoReferenced": true,
    "defineConstraints": [],
    "versionDefines": [],
    "noEngineReferences": false
}