%YAML 1.1
%TAG !u! tag:unity3d.com,2011:
--- !u!114 &11400000
MonoBehaviour:
  m_ObjectHideFlags: 0
  m_CorrespondingSourceObject: {fileID: 0}
  m_PrefabInstance: {fileID: 0}
  m_PrefabAsset: {fileID: 0}
  m_GameObject: {fileID: 0}
  m_Enabled: 1
  m_EditorHideFlags: 0
  m_Script: {fileID: 11500000, guid: cf16c2b11586eff43b7e7fd87e571710, type: 3}
  m_Name: Defend
  m_EditorClassIdentifier: 
  _displayName: Defend
  _description: 
  _hitPrefab: {fileID: 6387539647561051404, guid: 323ee966c7b42cf4eafb34ced720fd29,
    type: 3}
  _aim: 2
  _skillMovement: 0
  _forms: []
  _cost:
    _stat: 0
    _amount: 0
    _momentOfPay: 0
    _allowOvercheck: 0
  _gamePrefab: {fileID: 0}
  _defenseStat: 3
  _defenseMultiplier: 2
