%YAML 1.1
%TAG !u! tag:unity3d.com,2011:
--- !u!114 &11400000
MonoBehaviour:
  m_ObjectHideFlags: 0
  m_CorrespondingSourceObject: {fileID: 0}
  m_PrefabInstance: {fileID: 0}
  m_PrefabAsset: {fileID: 0}
  m_GameObject: {fileID: 0}
  m_Enabled: 1
  m_EditorHideFlags: 0
  m_Script: {fileID: 11500000, guid: f505f54692360b3408a7ea3526aa4c7e, type: 3}
  m_Name: Scold
  m_EditorClassIdentifier: 
  _displayName: Scold
  _description: 
  _hitPrefab: {fileID: 8832626861018793841, guid: 88acca36ee8942f49b9edc525d2ae2d3,
    type: 3}
  _aim: 0
  _skillMovement: 2
  _forms:
  - {fileID: 11400000, guid: 746cae71664ac59408631878917f62bf, type: 2}
  _cost:
    _stat: 0
    _amount: 0
    _momentOfPay: 0
    _allowOvercheck: 0
  _gamePrefab: {fileID: 5423119713015265806, guid: 303e9d046e4ffba428e7ca2c501cc5f8,
    type: 3}
  _configuration:
    _power: 0
    _might: 1
    _targetStat: 1
    _attackStat: 4
    _defenseStat: 5
