%YAML 1.1
%TAG !u! tag:unity3d.com,2011:
--- !u!1 &129821446513855369
GameObject:
  m_ObjectHideFlags: 0
  m_CorrespondingSourceObject: {fileID: 0}
  m_PrefabInstance: {fileID: 0}
  m_PrefabAsset: {fileID: 0}
  serializedVersion: 6
  m_Component:
  - component: {fileID: 129821446513855371}
  - component: {fileID: 129821446513855370}
  m_Layer: 0
  m_Name: NoImpactHit
  m_TagString: Untagged
  m_Icon: {fileID: 0}
  m_NavMeshLayer: 0
  m_StaticEditorFlags: 0
  m_IsActive: 1
--- !u!4 &129821446513855371
Transform:
  m_ObjectHideFlags: 0
  m_CorrespondingSourceObject: {fileID: 0}
  m_PrefabInstance: {fileID: 0}
  m_PrefabAsset: {fileID: 0}
  m_GameObject: {fileID: 129821446513855369}
  m_LocalRotation: {x: 0, y: 0, z: 0, w: 1}
  m_LocalPosition: {x: 0, y: 0, z: 0}
  m_LocalScale: {x: 1, y: 1, z: 1}
  m_Children:
  - {fileID: 129821445270916664}
  m_Father: {fileID: 0}
  m_RootOrder: 0
  m_LocalEulerAnglesHint: {x: 0, y: 0, z: 0}
--- !u!114 &129821446513855370
MonoBehaviour:
  m_ObjectHideFlags: 0
  m_CorrespondingSourceObject: {fileID: 0}
  m_PrefabInstance: {fileID: 0}
  m_PrefabAsset: {fileID: 0}
  m_GameObject: {fileID: 129821446513855369}
  m_Enabled: 1
  m_EditorHideFlags: 0
  m_Script: {fileID: 11500000, guid: b2586e7f6416eec4f93aff43467b130b, type: 3}
  m_Name: 
  m_EditorClassIdentifier: 
--- !u!1001 &129821445271311544
PrefabInstance:
  m_ObjectHideFlags: 0
  serializedVersion: 2
  m_Modification:
    m_TransformParent: {fileID: 129821446513855371}
    m_Modifications:
    - target: {fileID: 100000, guid: 3156817f64ec68948ad6bb26569b9ef5, type: 3}
      propertyPath: m_Name
      value: Particles
      objectReference: {fileID: 0}
    - target: {fileID: 400000, guid: 3156817f64ec68948ad6bb26569b9ef5, type: 3}
      propertyPath: m_LocalPosition.x
      value: 0
      objectReference: {fileID: 0}
    - target: {fileID: 400000, guid: 3156817f64ec68948ad6bb26569b9ef5, type: 3}
      propertyPath: m_LocalPosition.y
      value: 0
      objectReference: {fileID: 0}
    - target: {fileID: 400000, guid: 3156817f64ec68948ad6bb26569b9ef5, type: 3}
      propertyPath: m_LocalPosition.z
      value: 0
      objectReference: {fileID: 0}
    - target: {fileID: 400000, guid: 3156817f64ec68948ad6bb26569b9ef5, type: 3}
      propertyPath: m_LocalRotation.x
      value: -0
      objectReference: {fileID: 0}
    - target: {fileID: 400000, guid: 3156817f64ec68948ad6bb26569b9ef5, type: 3}
      propertyPath: m_LocalRotation.y
      value: -0
      objectReference: {fileID: 0}
    - target: {fileID: 400000, guid: 3156817f64ec68948ad6bb26569b9ef5, type: 3}
      propertyPath: m_LocalRotation.z
      value: -0
      objectReference: {fileID: 0}
    - target: {fileID: 400000, guid: 3156817f64ec68948ad6bb26569b9ef5, type: 3}
      propertyPath: m_LocalRotation.w
      value: 1
      objectReference: {fileID: 0}
    - target: {fileID: 400000, guid: 3156817f64ec68948ad6bb26569b9ef5, type: 3}
      propertyPath: m_RootOrder
      value: 0
      objectReference: {fileID: 0}
    - target: {fileID: 400000, guid: 3156817f64ec68948ad6bb26569b9ef5, type: 3}
      propertyPath: m_LocalEulerAnglesHint.x
      value: 0
      objectReference: {fileID: 0}
    - target: {fileID: 400000, guid: 3156817f64ec68948ad6bb26569b9ef5, type: 3}
      propertyPath: m_LocalEulerAnglesHint.y
      value: 0
      objectReference: {fileID: 0}
    - target: {fileID: 400000, guid: 3156817f64ec68948ad6bb26569b9ef5, type: 3}
      propertyPath: m_LocalEulerAnglesHint.z
      value: 0
      objectReference: {fileID: 0}
    - target: {fileID: 19900000, guid: 3156817f64ec68948ad6bb26569b9ef5, type: 3}
      propertyPath: m_SortingLayerID
      value: 840848655
      objectReference: {fileID: 0}
    - target: {fileID: 19900000, guid: 3156817f64ec68948ad6bb26569b9ef5, type: 3}
      propertyPath: m_SortingLayer
      value: 2
      objectReference: {fileID: 0}
    m_RemovedComponents:
    - {fileID: 11400000, guid: 3156817f64ec68948ad6bb26569b9ef5, type: 3}
  m_SourcePrefab: {fileID: 100100000, guid: 3156817f64ec68948ad6bb26569b9ef5, type: 3}
--- !u!4 &129821445270916664 stripped
Transform:
  m_CorrespondingSourceObject: {fileID: 400000, guid: 3156817f64ec68948ad6bb26569b9ef5,
    type: 3}
  m_PrefabInstance: {fileID: 129821445271311544}
  m_PrefabAsset: {fileID: 0}
