%YAML 1.1
%TAG !u! tag:unity3d.com,2011:
--- !u!114 &11400000
MonoBehaviour:
  m_ObjectHideFlags: 0
  m_CorrespondingSourceObject: {fileID: 0}
  m_PrefabInstance: {fileID: 0}
  m_PrefabAsset: {fileID: 0}
  m_GameObject: {fileID: 0}
  m_Enabled: 1
  m_EditorHideFlags: 0
  m_Script: {fileID: 11500000, guid: 033213ca179db604182e8991b4cdcd94, type: 3}
  m_Name: Hound2Spectre2ForasianBandit
  m_EditorClassIdentifier: 
  _heroesLayoutPoints:
    min: {x: -3.4394317, y: 1.7257766, z: 0}
    max: {x: -4.5954285, y: -0.62079453, z: 0}
  _positionedEnemies:
  - config: {fileID: 11400000, guid: 178ee1aa9af8f7e4f833091e08ad8784, type: 2}
    position: {x: 4.9930634, y: 1.9742614, z: 0}
  - config: {fileID: 11400000, guid: 1dcf4cba99b076144a6b9d7e059a214a, type: 2}
    position: {x: 2.1647165, y: 1.0262752, z: 0}
  - config: {fileID: 11400000, guid: 2d16120ad8c6f964bb7df235c302d6b6, type: 2}
    position: {x: 4.186092, y: 0.522663, z: 0}
  - config: {fileID: 11400000, guid: 1dcf4cba99b076144a6b9d7e059a214a, type: 2}
    position: {x: 2.6363618, y: -0.43902954, z: 0}
  - config: {fileID: 11400000, guid: 178ee1aa9af8f7e4f833091e08ad8784, type: 2}
    position: {x: 5.9238577, y: -0.6379842, z: 0}
